{
  "$schema": "https://turborepo.org/schema.json",
  "pipeline": {
    "build": {
      "dependsOn": ["^build"],
      "outputs": ["dist/**", ".next/**"]
    },
    "clean": {
      "cache": false
    },
    "lint": {
      "outputs": []
    },
    "dev": {
      "cache": false
    }
  }
}
